<svg version="1.2" baseProfile="tiny-ps" xmlns="http://www.w3.org/2000/svg" viewBox="0 0 139 32" width="139" height="32">
	<title>Logo-header-svg</title>
	<defs>
		<clipPath clipPathUnits="userSpaceOnUse" id="cp1">
			<path d="M0 0.43L43.13 0.43L43.13 31.28L0 31.28L0 0.43Z" />
		</clipPath>
	</defs>
	<style>
		tspan { white-space:pre }
		.shp0 { fill: #1fc1c3 } 
		.shp1 { fill: #000000 } 
	</style>
	<g id="Page-1">
		<g id="Bridge_Home">
			<g id="Header">
				<g id="Group-10">
					<g id="Logo">
						<g id="Group-3">
							<g id="Clip-2">
							</g>
							<g id="Clip-Path: Fill-1" clip-path="url(#cp1)">
								<path id="Fill-1" fill-rule="evenodd" class="shp0" d="M39.61 14.79C41.13 13.2 41.96 11.13 41.96 8.95C41.96 4.25 38.08 0.43 33.31 0.43L0 0.43L3.83 4.2C4.44 4.8 5.29 5.15 6.16 5.15L33.31 5.15C34.47 5.15 35.56 5.66 36.3 6.55C37.04 7.44 37.32 8.59 37.09 9.73C36.74 11.48 35.1 12.75 33.2 12.75L13.18 12.75L12.53 12.76L16.38 16.53L16.47 16.61C17.08 17.16 17.87 17.47 18.69 17.47L33.51 17.47C35.98 17.47 38.09 19.26 38.32 21.55C38.45 22.85 38.03 24.09 37.14 25.06C36.26 26.01 35.01 26.56 33.71 26.56L26.58 26.56L30.41 30.34C31.02 30.94 31.87 31.28 32.74 31.28L33.71 31.28C38.9 31.28 43.13 27.12 43.13 22.01C43.13 19.18 41.85 16.56 39.61 14.79Z" />
							</g>
						</g>
						<path id="Fill-7" fill-rule="evenodd" class="shp1" d="M53.46 22.68L53.46 7.78L58.94 7.78C62.27 7.78 63.8 9.37 63.8 11.95C63.8 13.36 63.07 14.44 61.76 15.02C63.25 15.58 64.33 16.83 64.33 18.43C64.33 21.22 62.32 22.68 59 22.68L53.46 22.68ZM58.69 10.32L56.61 10.32L56.61 13.93L58.78 13.93C60.04 13.93 60.64 13.21 60.64 12.1C60.64 10.99 60.03 10.32 58.69 10.32ZM56.61 16.19L56.61 20.13L58.68 20.13C60.19 20.13 61.09 19.53 61.09 18.15C61.09 16.78 60.14 16.19 58.64 16.19L56.61 16.19Z" />
						<path id="Fill-9" fill-rule="evenodd" class="shp1" d="M75.27 7.78C78.4 7.78 80.67 9.36 80.67 12.39L80.67 13.35C80.67 15.36 79.61 16.67 78.11 17.32L80.93 22.68L77.34 22.68L75.01 17.89L73.13 17.89L73.13 22.68L69.81 22.68L69.81 7.78L75.27 7.78ZM73.13 10.35L73.13 15.41L75.17 15.41C76.5 15.41 77.36 14.7 77.36 13.38L77.36 12.37C77.36 11.06 76.5 10.35 75.17 10.35L73.13 10.35Z" />
						<path id="Fill-11" class="shp1" d="M86.48 22.68L89.8 22.68L89.8 7.78L86.48 7.78L86.48 22.68Z" />
						<path id="Fill-13" fill-rule="evenodd" class="shp1" d="M96.19 7.78L101.6 7.78C104.98 7.78 107.35 9.63 107.35 12.66L107.35 17.88C107.35 21.18 104.98 22.68 101.6 22.68L96.19 22.68L96.19 7.78ZM104.02 13.23C104.02 11.79 103.37 10.35 101.46 10.35L99.51 10.35L99.51 20.1L101.46 20.1C103.14 20.1 104.02 19.25 104.02 17.84L104.02 13.23Z" />
						<path id="Fill-14" fill-rule="evenodd" class="shp1" d="M123.33 22.06C122.22 22.52 120.4 22.9 118.55 22.9C115.29 22.9 112.8 21.15 112.8 17.76L112.8 12.88C112.8 9.36 115.47 7.56 119.07 7.56C120.85 7.56 122.3 7.94 123.06 8.24L122.56 10.87C121.89 10.64 120.63 10.33 119.42 10.33C117.35 10.33 116.13 11.34 116.13 13.07L116.13 17.66C116.13 19.36 117.16 20.19 118.91 20.19C119.48 20.19 119.98 20.12 120.41 20L120.41 15.22L123.33 15.22L123.33 22.06Z" />
						<path id="Fill-15" class="shp1" d="M129.18 7.78L138.52 7.78L138.52 10.54L132.52 10.54L132.52 13.9L138.3 13.9L138.3 16.48L132.52 16.48L132.52 19.91L138.76 19.91L138.76 22.68L129.18 22.68L129.18 7.78Z" />
					</g>
				</g>
			</g>
		</g>
	</g>
</svg>